CBS Social Survey Report
…
Code

t1 <- lss_total_srvyr %>%
  drop_na(trust_in_gov_bi) %>%
    filter(datiut_yehudi<=5)%>%
  group_by(year,religiosity_level_jews)%>%
  summarize(mean_trust_weighted = survey_mean(trust_in_gov_bi, vartype = "ci"),
            mean_trust_unweighted = mean(trust_in_gov_bi))

t1

# A tibble: 35 × 6
# Groups:   year [7]
    year religiosity_level_jews     mean_trust_weighted mean_t…¹ mean_…² mean_…³
   <dbl> <chr>                                    <dbl>    <dbl>   <dbl>   <dbl>
 1  2015 1. Haredi                                0.299    0.257   0.340   0.301
 2  2015 2. Dati                                  0.623    0.582   0.665   0.628
 3  2015 3. Masorty dati                          0.602    0.562   0.642   0.608
 4  2015 4. Masorty lo col cah dati               0.514    0.486   0.542   0.507
 5  2015 5. Hilony                                0.325    0.306   0.345   0.323
 6  2016 1. Haredi                                0.290    0.250   0.329   0.288
 7  2016 2. Dati                                  0.632    0.591   0.673   0.633
 8  2016 3. Masorty dati                          0.562    0.522   0.601   0.561
 9  2016 4. Masorty lo col cah dati               0.452    0.422   0.482   0.456
10  2016 5. Hilony                                0.324    0.304   0.343   0.329
# … with 25 more rows, and abbreviated variable names ¹​mean_trust_weighted_low,
#   ²​mean_trust_weighted_upp, ³​mean_trust_unweighted
…
