CBS Social Survey Report
…
Code

t1 <- lss_total_srvyr %>%
  drop_na(trust_in_gov_bi) %>%
    #filter(datiut_yehudi<=5)%>%
  group_by(year,sector)%>%
  summarize(mean_trust_weighted = survey_mean(trust_in_gov_bi, vartype = "ci"),
            mean_trust_unweighted = mean(trust_in_gov_bi))

t1

# A tibble: 21 × 6
# Groups:   year [7]
    year sector         mean_trust_weighted mean_trust_weighte…¹ mean_…² mean_…³
   <dbl> <chr>                        <dbl>                <dbl>   <dbl>   <dbl>
 1  2015 arab                         0.316                0.286   0.345   0.342
 2  2015 general                      0.446                0.432   0.460   0.441
 3  2015 ultra_orthodox               0.299                0.257   0.340   0.301
 4  2016 arab                         0.352                0.322   0.381   0.351
 5  2016 general                      0.428                0.414   0.442   0.430
 6  2016 ultra_orthodox               0.290                0.250   0.329   0.288
 7  2017 arab                         0.333                0.304   0.362   0.349
 8  2017 general                      0.444                0.430   0.458   0.445
 9  2017 ultra_orthodox               0.360                0.318   0.401   0.352
10  2018 arab                         0.364                0.332   0.396   0.383
# … with 11 more rows, and abbreviated variable names ¹​mean_trust_weighted_low,
#   ²​mean_trust_weighted_upp, ³​mean_trust_unweighted
…
Code

t1 <- lss_total_srvyr %>%
  drop_na(trust_in_gov_bi) %>%
    filter(datiut_yehudi<=5)%>%
  group_by(year,religiosity_level_jews)%>%
  summarize(mean_trust_weighted = survey_mean(trust_in_gov_bi, vartype = "ci"),
            mean_trust_unweighted = mean(trust_in_gov_bi))

t1

# A tibble: 35 × 6
# Groups:   year [7]
    year religiosity_level_jews     mean_trust_weighted mean_t…¹ mean_…² mean_…³
   <dbl> <chr>                                    <dbl>    <dbl>   <dbl>   <dbl>
 1  2015 1. Haredi                                0.299    0.257   0.340   0.301
 2  2015 2. Dati                                  0.623    0.582   0.665   0.628
 3  2015 3. Masorty dati                          0.602    0.562   0.642   0.608
 4  2015 4. Masorty lo col cah dati               0.514    0.486   0.542   0.507
 5  2015 5. Hilony                                0.325    0.306   0.345   0.323
 6  2016 1. Haredi                                0.290    0.250   0.329   0.288
 7  2016 2. Dati                                  0.632    0.591   0.673   0.633
 8  2016 3. Masorty dati                          0.562    0.522   0.601   0.561
 9  2016 4. Masorty lo col cah dati               0.452    0.422   0.482   0.456
10  2016 5. Hilony                                0.324    0.304   0.343   0.329
# … with 25 more rows, and abbreviated variable names ¹​mean_trust_weighted_low,
#   ²​mean_trust_weighted_upp, ³​mean_trust_unweighted
…
Code

t1 <- lss_total_srvyr %>%
  drop_na(trust_in_judiciary_bi) %>% 
  group_by(year,sector)%>%
  summarize(mean_trust_weighted = survey_mean(trust_in_judiciary_bi, vartype = "ci"),
            mean_trust_unweighted = mean(trust_in_judiciary_bi)) %>% 
  mutate(mean_trust_weighted-mean_trust_weighted_low)

t1

# A tibble: 21 × 7
# Groups:   year [7]
    year sector         mean_trust_weighted mean_trust…¹ mean_…² mean_…³ mean_…⁴
   <dbl> <chr>                        <dbl>        <dbl>   <dbl>   <dbl>   <dbl>
 1  2015 arab                         0.576        0.543   0.609   0.612  0.0333
 2  2015 general                      0.694        0.681   0.708   0.697  0.0135
 3  2015 ultra_orthodox               0.244        0.204   0.284   0.249  0.0399
 4  2016 arab                         0.573        0.543   0.604   0.574  0.0305
 5  2016 general                      0.633        0.619   0.648   0.637  0.0141
 6  2016 ultra_orthodox               0.206        0.169   0.242   0.198  0.0362
 7  2017 arab                         0.570        0.539   0.602   0.590  0.0315
 8  2017 general                      0.650        0.636   0.664   0.655  0.0139
 9  2017 ultra_orthodox               0.202        0.167   0.237   0.196  0.0348
10  2018 arab                         0.586        0.553   0.619   0.601  0.0329
# … with 11 more rows, and abbreviated variable names ¹​mean_trust_weighted_low,
#   ²​mean_trust_weighted_upp, ³​mean_trust_unweighted,
#   ⁴​`mean_trust_weighted - mean_trust_weighted_low`
…
Code

t1 <- lss_total_srvyr %>%
  drop_na(trust_in_judiciary_bi) %>%
    #filter(datiut_yehudi<=5)%>%
  group_by(year,sector)%>%
  summarize(mean_trust_weighted = survey_mean(trust_in_judiciary_bi, vartype = "ci"),
            mean_trust_unweighted = mean(trust_in_judiciary_bi))

t1

# A tibble: 21 × 6
# Groups:   year [7]
    year sector         mean_trust_weighted mean_trust_weighte…¹ mean_…² mean_…³
   <dbl> <chr>                        <dbl>                <dbl>   <dbl>   <dbl>
 1  2015 arab                         0.576                0.543   0.609   0.612
 2  2015 general                      0.694                0.681   0.708   0.697
 3  2015 ultra_orthodox               0.244                0.204   0.284   0.249
 4  2016 arab                         0.573                0.543   0.604   0.574
 5  2016 general                      0.633                0.619   0.648   0.637
 6  2016 ultra_orthodox               0.206                0.169   0.242   0.198
 7  2017 arab                         0.570                0.539   0.602   0.590
 8  2017 general                      0.650                0.636   0.664   0.655
 9  2017 ultra_orthodox               0.202                0.167   0.237   0.196
10  2018 arab                         0.586                0.553   0.619   0.601
# … with 11 more rows, and abbreviated variable names ¹​mean_trust_weighted_low,
#   ²​mean_trust_weighted_upp, ³​mean_trust_unweighted
…
Code

t1 <- lss_total_srvyr %>%
  drop_na(trust_in_judiciary_bi) %>%
    filter(datiut_yehudi<=5)%>%
  group_by(year,religiosity_level_jews)%>%
  summarize(mean_trust_weighted = survey_mean(trust_in_judiciary_bi, vartype = "ci"),
            mean_trust_unweighted = mean(trust_in_judiciary_bi))

t1

# A tibble: 35 × 6
# Groups:   year [7]
    year religiosity_level_jews     mean_trust_weighted mean_t…¹ mean_…² mean_…³
   <dbl> <chr>                                    <dbl>    <dbl>   <dbl>   <dbl>
 1  2015 1. Haredi                                0.244    0.204   0.284   0.249
 2  2015 2. Dati                                  0.512    0.467   0.556   0.518
 3  2015 3. Masorty dati                          0.645    0.604   0.686   0.653
 4  2015 4. Masorty lo col cah dati               0.708    0.681   0.735   0.709
 5  2015 5. Hilony                                0.747    0.728   0.765   0.745
 6  2016 1. Haredi                                0.206    0.169   0.242   0.198
 7  2016 2. Dati                                  0.511    0.467   0.554   0.508
 8  2016 3. Masorty dati                          0.601    0.560   0.641   0.612
 9  2016 4. Masorty lo col cah dati               0.640    0.611   0.670   0.640
10  2016 5. Hilony                                0.683    0.663   0.703   0.687
# … with 25 more rows, and abbreviated variable names ¹​mean_trust_weighted_low,
#   ²​mean_trust_weighted_upp, ³​mean_trust_unweighted
…
